{
    "algorithm_types": [
        "RANDOM_FOREST"
    ],
    "description": "This primitive performs supervised recursive feature elimination using\nrandom forests to generate an ordered list of features.",
    "digest": "5ea134d0ae0164b90d233497e76512448e0856b991c8701e9cdc3929848630ca",
    "id": "ef6f3887-b253-4bfd-8b35-ada449efad0c",
    "installation": [
        {
            "package": "cython",
            "type": "PIP",
            "version": "0.29.24"
        },
        {
            "package_uri": "git+https://gitlab.com/datadrivendiscovery/contrib/kungfuai-primitives.git@49acb225bb6994d3dfaffdf3b7761395423680a4#egg=kf-d3m-primitives",
            "type": "PIP"
        }
    ],
    "keywords": [
        "Rank and score numeric features based on Random Forest and Recursive Feature Elimination"
    ],
    "name": "RF Features",
    "original_python_path": "kf_d3m_primitives.feature_selection.rf_features.rf_features.RfFeaturesPrimitive",
    "primitive_code": {
        "arguments": {
            "hyperparams": {
                "kind": "RUNTIME",
                "type": "kf_d3m_primitives.feature_selection.rf_features.rf_features.Hyperparams"
            },
            "inputs": {
                "kind": "PIPELINE",
                "type": "d3m.container.pandas.DataFrame"
            },
            "iterations": {
                "default": null,
                "kind": "RUNTIME",
                "type": "typing.Union[NoneType, int]"
            },
            "outputs": {
                "kind": "PIPELINE",
                "type": "d3m.container.pandas.DataFrame"
            },
            "params": {
                "kind": "RUNTIME",
                "type": "kf_d3m_primitives.feature_selection.rf_features.rf_features.Params"
            },
            "produce_methods": {
                "kind": "RUNTIME",
                "type": "typing.Sequence[str]"
            },
            "random_seed": {
                "default": 0,
                "kind": "RUNTIME",
                "type": "int"
            },
            "timeout": {
                "default": null,
                "kind": "RUNTIME",
                "type": "typing.Union[NoneType, float]"
            }
        },
        "class_attributes": {
            "logger": "logging.Logger",
            "metadata": "d3m.metadata.base.PrimitiveMetadata"
        },
        "class_methods": {},
        "class_type_arguments": {
            "Hyperparams": "kf_d3m_primitives.feature_selection.rf_features.rf_features.Hyperparams",
            "Inputs": "d3m.container.pandas.DataFrame",
            "Outputs": "d3m.container.pandas.DataFrame",
            "Params": "kf_d3m_primitives.feature_selection.rf_features.rf_features.Params"
        },
        "hyperparams": {
            "only_numeric_cols": {
                "default": false,
                "description": "consider only numeric columns for feature selection",
                "semantic_types": [
                    "https://metadata.datadrivendiscovery.org/types/TuningParameter"
                ],
                "structural_type": "bool",
                "type": "d3m.metadata.hyperparams.UniformBool"
            },
            "proportion_of_features": {
                "default": 1.0,
                "description": "proportion of top features from input dataset to keep",
                "lower": 0.0,
                "lower_inclusive": true,
                "semantic_types": [
                    "https://metadata.datadrivendiscovery.org/types/TuningParameter"
                ],
                "structural_type": "float",
                "type": "d3m.metadata.hyperparams.Uniform",
                "upper": 1.0,
                "upper_inclusive": true
            }
        },
        "instance_attributes": {
            "docker_containers": "typing.Dict[str, d3m.primitive_interfaces.base.DockerContainer]",
            "hyperparams": "d3m.metadata.hyperparams.Hyperparams",
            "random_seed": "int",
            "temporary_directory": "typing.Union[NoneType, str]",
            "volumes": "typing.Dict[str, str]"
        },
        "instance_methods": {
            "__init__": {
                "arguments": [
                    "hyperparams",
                    "random_seed"
                ],
                "kind": "OTHER",
                "returns": "NoneType"
            },
            "fit": {
                "arguments": [
                    "timeout",
                    "iterations"
                ],
                "description": "fits rffeatures feature selection algorithm on the training set.\napplies same feature selection to test set for consistency with downstream classifiers\n\nParameters\n----------\ntimeout:\n    A maximum time this primitive should be fitting during this method call, in seconds.\niterations:\n    How many of internal iterations should the primitive do.\n\nReturns\n-------\nA ``CallResult`` with ``None`` value.",
                "kind": "OTHER",
                "returns": "d3m.primitive_interfaces.base.CallResult[NoneType]"
            },
            "fit_multi_produce": {
                "arguments": [
                    "produce_methods",
                    "inputs",
                    "outputs",
                    "timeout",
                    "iterations"
                ],
                "description": "A method calling ``fit`` and after that multiple produce methods at once.\n\nThis method allows primitive author to implement an optimized version of both fitting\nand producing a primitive on same data.\n\nIf any additional method arguments are added to primitive's ``set_training_data`` method\nor produce method(s), or removed from them, they have to be added to or removed from this\nmethod as well. This method should accept an union of all arguments accepted by primitive's\n``set_training_data`` method and produce method(s) and then use them accordingly when\ncomputing results. Despite accepting all arguments they can be passed as ``None`` by the caller\nwhen they are not needed by any of the produce methods in ``produce_methods`` and ``set_training_data``.\n\nThe default implementation of this method just calls first ``set_training_data`` method,\n``fit`` method, and all produce methods listed in ``produce_methods`` in order and is\npotentially inefficient.\n\nParameters\n----------\nproduce_methods:\n    A list of names of produce methods to call.\ninputs:\n    The inputs given to ``set_training_data`` and all produce methods.\noutputs:\n    The outputs given to ``set_training_data``.\ntimeout:\n    A maximum time this primitive should take to both fit the primitive and produce outputs\n    for all produce methods listed in ``produce_methods`` argument, in seconds.\niterations:\n    How many of internal iterations should the primitive do for both fitting and producing\n    outputs of all produce methods.\n\nReturns\n-------\nA dict of values for each produce method wrapped inside ``MultiCallResult``.",
                "kind": "OTHER",
                "returns": "d3m.primitive_interfaces.base.MultiCallResult"
            },
            "get_params": {
                "arguments": [],
                "description": "Returns parameters of this primitive.\n\nParameters are all parameters of the primitive which can potentially change during a life-time of\na primitive. Parameters which cannot are passed through constructor.\n\nParameters should include all data which is necessary to create a new instance of this primitive\nbehaving exactly the same as this instance, when the new instance is created by passing the same\nparameters to the class constructor and calling ``set_params``.\n\nNo other arguments to the method are allowed (except for private arguments).\n\nReturns\n-------\nAn instance of parameters.",
                "kind": "OTHER",
                "returns": "kf_d3m_primitives.feature_selection.rf_features.rf_features.Params"
            },
            "multi_produce": {
                "arguments": [
                    "produce_methods",
                    "inputs",
                    "timeout",
                    "iterations"
                ],
                "description": "A method calling multiple produce methods at once.\n\nWhen a primitive has multiple produce methods it is common that they might compute the\nsame internal results for same inputs but return different representations of those results.\nIf caller is interested in multiple of those representations, calling multiple produce\nmethods might lead to recomputing same internal results multiple times. To address this,\nthis method allows primitive author to implement an optimized version which computes\ninternal results only once for multiple calls of produce methods, but return those different\nrepresentations.\n\nIf any additional method arguments are added to primitive's produce method(s), they have\nto be added to this method as well. This method should accept an union of all arguments\naccepted by primitive's produce method(s) and then use them accordingly when computing\nresults. Despite accepting all arguments they can be passed as ``None`` by the caller\nwhen they are not needed by any of the produce methods in ``produce_methods``.\n\nThe default implementation of this method just calls all produce methods listed in\n``produce_methods`` in order and is potentially inefficient.\n\nIf primitive should have been fitted before calling this method, but it has not been,\nprimitive should raise a ``PrimitiveNotFittedError`` exception.\n\nParameters\n----------\nproduce_methods:\n    A list of names of produce methods to call.\ninputs:\n    The inputs given to all produce methods.\ntimeout:\n    A maximum time this primitive should take to produce outputs for all produce methods\n    listed in ``produce_methods`` argument, in seconds.\niterations:\n    How many of internal iterations should the primitive do.\n\nReturns\n-------\nA dict of values for each produce method wrapped inside ``MultiCallResult``.",
                "kind": "OTHER",
                "returns": "d3m.primitive_interfaces.base.MultiCallResult"
            },
            "produce": {
                "arguments": [
                    "inputs",
                    "timeout",
                    "iterations"
                ],
                "description": "Produce primitive's best choice of the output for each of the inputs.\n\nThe output value should be wrapped inside ``CallResult`` object before returning.\n\nIn many cases producing an output is a quick operation in comparison with ``fit``, but not\nall cases are like that. For example, a primitive can start a potentially long optimization\nprocess to compute outputs. ``timeout`` and ``iterations`` can serve as a way for a caller\nto guide the length of this process.\n\nIdeally, a primitive should adapt its call to try to produce the best outputs possible\ninside the time allocated. If this is not possible and the primitive reaches the timeout\nbefore producing outputs, it should raise a ``TimeoutError`` exception to signal that the\ncall was unsuccessful in the given time. The state of the primitive after the exception\nshould be as the method call has never happened and primitive should continue to operate\nnormally. The purpose of ``timeout`` is to give opportunity to a primitive to cleanly\nmanage its state instead of interrupting execution from outside. Maintaining stable internal\nstate should have precedence over respecting the ``timeout`` (caller can terminate the\nmisbehaving primitive from outside anyway). If a longer ``timeout`` would produce\ndifferent outputs, then ``CallResult``'s ``has_finished`` should be set to ``False``.\n\nSome primitives have internal iterations (for example, optimization iterations).\nFor those, caller can provide how many of primitive's internal iterations\nshould a primitive do before returning outputs. Primitives should make iterations as\nsmall as reasonable. If ``iterations`` is ``None``, then there is no limit on\nhow many iterations the primitive should do and primitive should choose the best amount\nof iterations on its own (potentially controlled through hyper-parameters).\nIf ``iterations`` is a number, a primitive has to do those number of iterations,\nif possible. ``timeout`` should still be respected and potentially less iterations\ncan be done because of that. Primitives with internal iterations should make\n``CallResult`` contain correct values.\n\nFor primitives which do not have internal iterations, any value of ``iterations``\nmeans that they should run fully, respecting only ``timeout``.\n\nIf primitive should have been fitted before calling this method, but it has not been,\nprimitive should raise a ``PrimitiveNotFittedError`` exception.\n\nParameters\n----------\ninputs: D3M dataframe\n\nReturns\n-------\nOutputs: D3M frame with top proportion of features selected by algorithm",
                "inputs_across_samples": [],
                "kind": "PRODUCE",
                "returns": "d3m.primitive_interfaces.base.CallResult[d3m.container.pandas.DataFrame]",
                "singleton": false
            },
            "produce_metafeatures": {
                "arguments": [
                    "inputs",
                    "timeout",
                    "iterations"
                ],
                "description": "Parameters\n----------\ninputs: D3M dataframe, NOTE: Target column MUST be the last column\n\nReturns\n----------\nOutputs: D3M dataframe with ordered list of original features in first column",
                "inputs_across_samples": [],
                "kind": "PRODUCE",
                "returns": "d3m.primitive_interfaces.base.CallResult[d3m.container.pandas.DataFrame]",
                "singleton": false
            },
            "set_params": {
                "arguments": [
                    "params"
                ],
                "description": "Sets parameters of this primitive.\n\nParameters are all parameters of the primitive which can potentially change during a life-time of\na primitive. Parameters which cannot are passed through constructor.\n\nNo other arguments to the method are allowed (except for private arguments).\n\nParameters\n----------\nparams:\n    An instance of parameters.",
                "kind": "OTHER",
                "returns": "NoneType"
            },
            "set_training_data": {
                "arguments": [
                    "inputs",
                    "outputs"
                ],
                "description": "Sets primitive's training data\n\nParameters\n----------\ninputs = D3M dataframe",
                "kind": "OTHER",
                "returns": "NoneType"
            }
        },
        "interfaces": [
            "base.PrimitiveBase"
        ],
        "interfaces_version": "2021.11.25.dev0",
        "params": {
            "bestFeatures": "typing.List[str]"
        }
    },
    "primitive_family": "FEATURE_SELECTION",
    "python_path": "d3m.primitives.feature_selection.rffeatures.Rffeatures",
    "schema": "https://metadata.datadrivendiscovery.org/schemas/v0/primitive.json",
    "source": {
        "contact": "mailto:cbethune@uncharted.software",
        "name": "Distil",
        "uris": [
            "https://gitlab.com/datadrivendiscovery/contrib/kungfuai-primitives"
        ]
    },
    "structural_type": "kf_d3m_primitives.feature_selection.rf_features.rf_features.RfFeaturesPrimitive",
    "version": "3.1.2"
}
