{
    "id":"f10048a7-8610-49b9-b98d-dbbf43bae754",
    "schema":"https://metadata.datadrivendiscovery.org/schemas/v0/pipeline.json",
    "created":"2020-06-06T22:28:56.998504Z",
    "inputs":[
        {
            "name":"input dataset"
        }
    ],
    "outputs":[
        {
            "data":"steps.12.produce",
            "name":"predictions of input dataset"
        }
    ],
    "steps":[
        {
            "type":"PRIMITIVE",
            "primitive":{
                "id":"DSBox-splitter",
                "version":"1.5.4",
                "python_path":"d3m.primitives.data_preprocessing.splitter.DSBOX",
                "name":"DSBox Splitter",
                "digest":"37085ba89af349ffd68c0136e863da9f70e49de179f05fd7c46ea74bda8264e7"
            },
            "arguments":{
                "inputs":{
                    "type":"CONTAINER",
                    "data":"inputs.0"
                }
            },
            "outputs":[
                {
                    "id":"produce"
                }
            ]
        },
        {
            "type":"PRIMITIVE",
            "primitive":{
                "id":"f31f8c1f-d1c5-43e5-a4b2-2ae4a761ef2e",
                "version":"0.2.0",
                "python_path":"d3m.primitives.data_transformation.denormalize.Common",
                "name":"Denormalize datasets",
                "digest":"16c9f67b149ccb499e7dfbabba6a4b15c670e10759eefd56ea7ee05e59c41979"
            },
            "arguments":{
                "inputs":{
                    "type":"CONTAINER",
                    "data":"steps.0.produce"
                }
            },
            "outputs":[
                {
                    "id":"produce"
                }
            ]
        },
        {
            "type":"PRIMITIVE",
            "primitive":{
                "id":"4b42ce1e-9b98-4a25-b68e-fad13311eb65",
                "version":"0.3.0",
                "python_path":"d3m.primitives.data_transformation.dataset_to_dataframe.Common",
                "name":"Extract a DataFrame from a Dataset",
                "digest":"fd3524c43db27ef31bc29c097a0bd7a366510f209d5aff28e6d3e802a35db020"
            },
            "arguments":{
                "inputs":{
                    "type":"CONTAINER",
                    "data":"steps.1.produce"
                }
            },
            "outputs":[
                {
                    "id":"produce"
                }
            ]
        },
        {
            "type":"PRIMITIVE",
            "primitive":{
                "id":"e193afa1-b45e-4d29-918f-5bb1fa3b88a7",
                "version":"0.2.0",
                "python_path":"d3m.primitives.schema_discovery.profiler.Common",
                "name":"Determine missing semantic types for columns automatically",
                "digest":"3bb60bc0c0a1f290b7f4d751274fd105471657cd6fb9237ab751e261d33af03f"
            },
            "arguments":{
                "inputs":{
                    "type":"CONTAINER",
                    "data":"steps.2.produce"
                }
            },
            "outputs":[
                {
                    "id":"produce"
                }
            ]
        },
        {
            "type":"PRIMITIVE",
            "primitive":{
                "id":"4503a4c6-42f7-45a1-a1d4-ed69699cf5e1",
                "version":"0.4.0",
                "python_path":"d3m.primitives.data_transformation.extract_columns_by_semantic_types.Common",
                "name":"Extracts columns by semantic type",
                "digest":"edb6606a33dc74e0bfc7d149ea7ae1a469d51c6af4e14201775ef9826942528d"
            },
            "arguments":{
                "inputs":{
                    "type":"CONTAINER",
                    "data":"steps.3.produce"
                }
            },
            "outputs":[
                {
                    "id":"produce"
                }
            ],
            "hyperparams":{
                "semantic_types":{
                    "type":"VALUE",
                    "data":[
                        "https://metadata.datadrivendiscovery.org/types/PrimaryKey",
                        "https://metadata.datadrivendiscovery.org/types/Attribute"
                    ]
                }
            }
        },
        {
            "type":"PRIMITIVE",
            "primitive":{
                "id":"b2612849-39e4-33ce-bfda-24f3e2cb1e93",
                "version":"1.5.4",
                "python_path":"d3m.primitives.schema_discovery.profiler.DSBOX",
                "name":"DSBox Profiler",
                "digest":"31e667d0aff9b3fe5974ccefefea80d503e5a47a0d41a9789ece8e12daf24916"
            },
            "arguments":{
                "inputs":{
                    "type":"CONTAINER",
                    "data":"steps.4.produce"
                }
            },
            "outputs":[
                {
                    "id":"produce"
                }
            ]
        },
        {
            "type":"PRIMITIVE",
            "primitive":{
                "id":"dsbox-cleaning-featurizer",
                "version":"1.5.4",
                "python_path":"d3m.primitives.data_cleaning.cleaning_featurizer.DSBOX",
                "name":"DSBox Cleaning Featurizer",
                "digest":"0b1758ab34f1dce69ce4530f4a565c08c8d0682ade1bdbfd3721e827165d462d"
            },
            "arguments":{
                "inputs":{
                    "type":"CONTAINER",
                    "data":"steps.5.produce"
                }
            },
            "outputs":[
                {
                    "id":"produce"
                }
            ]
        },
        {
            "type":"PRIMITIVE",
            "primitive":{
                "id":"dsbox-multi-table-feature-labler",
                "version":"1.5.4",
                "python_path":"d3m.primitives.data_cleaning.label_encoder.DSBOX",
                "name":"DSBox feature labeler",
                "digest":"9cd86dd20b537a990dc613e1c3f307cd206ee40f2b786e760b3800684a408574"
            },
            "arguments":{
                "inputs":{
                    "type":"CONTAINER",
                    "data":"steps.6.produce"
                }
            },
            "outputs":[
                {
                    "id":"produce"
                }
            ]
        },
        {
            "type":"PRIMITIVE",
            "primitive":{
                "id":"7ddf2fd8-2f7f-4e53-96a7-0d9f5aeecf93",
                "version":"1.5.4",
                "python_path":"d3m.primitives.data_transformation.to_numeric.DSBOX",
                "name":"ISI DSBox To Numeric DataFrame",
                "digest":"c9f7c07836ec711ea21f3baae5c0dedf2a06392d0ef15b2cc0239a77ded89c82"
            },
            "arguments":{
                "inputs":{
                    "type":"CONTAINER",
                    "data":"steps.7.produce"
                }
            },
            "outputs":[
                {
                    "id":"produce"
                }
            ]
        },
        {
            "type":"PRIMITIVE",
            "primitive":{
                "id":"4503a4c6-42f7-45a1-a1d4-ed69699cf5e1",
                "version":"0.4.0",
                "python_path":"d3m.primitives.data_transformation.extract_columns_by_semantic_types.Common",
                "name":"Extracts columns by semantic type",
                "digest":"edb6606a33dc74e0bfc7d149ea7ae1a469d51c6af4e14201775ef9826942528d"
            },
            "arguments":{
                "inputs":{
                    "type":"CONTAINER",
                    "data":"steps.3.produce"
                }
            },
            "outputs":[
                {
                    "id":"produce"
                }
            ],
            "hyperparams":{
                "semantic_types":{
                    "type":"VALUE",
                    "data":[
                        "https://metadata.datadrivendiscovery.org/types/TrueTarget"
                    ]
                }
            }
        },
        {
            "type":"PRIMITIVE",
            "primitive":{
                "id":"ebebb1fa-a20c-38b9-9f22-bc92bc548c19",
                "version":"1.5.4",
                "python_path":"d3m.primitives.data_preprocessing.greedy_imputation.DSBOX",
                "name":"DSBox Greedy Imputer",
                "digest":"85764cf561e7748526ee1eeb129728da536e5f5ddcf4a87a7652add82de8cafd"
            },
            "arguments":{
                "inputs":{
                    "type":"CONTAINER",
                    "data":"steps.8.produce"
                },
                "outputs":{
                    "type":"CONTAINER",
                    "data":"steps.9.produce"
                }
            },
            "outputs":[
                {
                    "id":"produce"
                }
            ]
        },
        {
            "type":"PRIMITIVE",
            "primitive":{
                "id":"7ddf2fd8-2f7f-4e53-96a7-0d9f5aeecf93",
                "version":"1.5.4",
                "python_path":"d3m.primitives.data_transformation.to_numeric.DSBOX",
                "name":"ISI DSBox To Numeric DataFrame",
                "digest":"c9f7c07836ec711ea21f3baae5c0dedf2a06392d0ef15b2cc0239a77ded89c82"
            },
            "arguments":{
                "inputs":{
                    "type":"CONTAINER",
                    "data":"steps.9.produce"
                }
            },
            "outputs":[
                {
                    "id":"produce"
                }
            ],
            "hyperparams":{
                "drop_non_numeric_columns":{
                    "type":"VALUE",
                    "data":false
                }
            }
        },
        {
            "type":"PRIMITIVE",
            "primitive":{
                "id":"2a031907-6b2c-3390-b365-921f89c8816a",
                "version":"2020.5.26",
                "python_path":"d3m.primitives.regression.gradient_boosting.SKlearn",
                "name":"sklearn.ensemble.gradient_boosting.GradientBoostingRegressor",
                "digest":"387d49bdcc9e5848b070523a92ce672c9d2cf1796b2879ab8e78bd69d0129e44"
            },
            "arguments":{
                "inputs":{
                    "type":"CONTAINER",
                    "data":"steps.10.produce"
                },
                "outputs":{
                    "type":"CONTAINER",
                    "data":"steps.11.produce"
                }
            },
            "outputs":[
                {
                    "id":"produce"
                }
            ],
            "hyperparams":{
                "add_index_columns":{
                    "type":"VALUE",
                    "data":true
                },
                "learning_rate":{
                    "type":"VALUE",
                    "data":0.1
                },
                "max_depth":{
                    "type":"VALUE",
                    "data":2
                },
                "min_samples_leaf":{
                    "type":"VALUE",
                    "data":{
                        "case":"absolute",
                        "value":1
                    }
                },
                "min_samples_split":{
                    "type":"VALUE",
                    "data":{
                        "case":"int",
                        "value":2
                    }
                },
                "n_estimators":{
                    "type":"VALUE",
                    "data":100
                },
                "use_semantic_types":{
                    "type":"VALUE",
                    "data":true
                }
            }
        }
    ],
    "name":"default_regression_template2:140379562120608",
    "description":"",
    "digest":"3f7464f7593520cd37375217bb23dbeedefe677734290162e92e9b6cd785b4ba"
}